{
  "board": {
    "board_id": {
      "owner": {
        "type": "string",
        "path_value": "board_id"
      },
      "name": {
        "type": "string",
        "max": 125,
        "min": 3
      },
      "__frug:col:ideas": {
        "idea_id": {
          "user_name": "",
          "idea": {
            "type": "string",
            "max": 255
          }
        }
      }
    }
  }
}
